simulation/alu_wave.vcd
$date
	Tue Jun 23 16:53:27 2026
$end
$version
	Icarus Verilog
$end
$timescale
	1ps
$end
$scope module alu_tb $end
$var wire 1 ! zero_flag $end
$var wire 4 " result [3:0] $end
$var wire 1 # carry_out $end
$var reg 4 $ a [3:0] $end
$var reg 4 % b [3:0] $end
$var reg 3 & opcode [2:0] $end
$scope module uut $end
$var wire 4 ' a [3:0] $end
$var wire 4 ( b [3:0] $end
$var wire 3 ) opcode [2:0] $end
$var wire 1 ! zero_flag $end
$var wire 4 * sub_result [3:0] $end
$var wire 1 + sub_borrow $end
$var wire 4 , add_result [3:0] $end
$var wire 1 - add_carry $end
$var parameter 3 . ADD $end
$var parameter 3 / AND $end
$var parameter 3 0 NOT $end
$var parameter 3 1 OR $end
$var parameter 3 2 SHL $end
$var parameter 3 3 SHR $end
$var parameter 3 4 SUB $end
$var parameter 3 5 XOR $end
$var reg 1 # carry_out $end
$var reg 4 6 result [3:0] $end
$scope module ADDER $end
$var wire 4 7 a [3:0] $end
$var wire 4 8 b [3:0] $end
$var wire 1 9 cin $end
$var wire 4 : sum [3:0] $end
$var wire 1 - cout $end
$var wire 1 ; c3 $end
$var wire 1 < c2 $end
$var wire 1 = c1 $end
$scope module FA0 $end
$var wire 1 > a $end
$var wire 1 ? b $end
$var wire 1 9 cin $end
$var wire 1 = cout $end
$var wire 1 @ sum $end
$upscope $end
$scope module FA1 $end
$var wire 1 A a $end
$var wire 1 B b $end
$var wire 1 = cin $end
$var wire 1 < cout $end
$var wire 1 C sum $end
$upscope $end
$scope module FA2 $end
$var wire 1 D a $end
$var wire 1 E b $end
$var wire 1 < cin $end
$var wire 1 ; cout $end
$var wire 1 F sum $end
$upscope $end
$scope module FA3 $end
$var wire 1 G a $end
$var wire 1 H b $end
$var wire 1 ; cin $end
$var wire 1 - cout $end
$var wire 1 I sum $end
$upscope $end
$upscope $end
$scope module SUBTRACTOR $end
$var wire 4 J a [3:0] $end
$var wire 4 K b [3:0] $end
$var wire 1 L cin $end
$var wire 4 M sum [3:0] $end
$var wire 1 + cout $end
$var wire 1 N c3 $end
$var wire 1 O c2 $end
$var wire 1 P c1 $end
$scope module FA0 $end
$var wire 1 Q a $end
$var wire 1 R b $end
$var wire 1 L cin $end
$var wire 1 P cout $end
$var wire 1 S sum $end
$upscope $end
$scope module FA1 $end
$var wire 1 T a $end
$var wire 1 U b $end
$var wire 1 P cin $end
$var wire 1 O cout $end
$var wire 1 V sum $end
$upscope $end
$scope module FA2 $end
$var wire 1 W a $end
$var wire 1 X b $end
$var wire 1 O cin $end
$var wire 1 N cout $end
$var wire 1 Y sum $end
$upscope $end
$scope module FA3 $end
$var wire 1 Z a $end
$var wire 1 [ b $end
$var wire 1 N cin $end
$var wire 1 + cout $end
$var wire 1 \ sum $end
$upscope $end
$upscope $end
$upscope $end
$scope task show_result $end
$var reg 192 ] op_name [192:1] $end
$upscope $end
$upscope $end
$enddefinitions $end
$comment Show the parameter values. $end
$dumpall
b100 5
b1 4
b111 3
b110 2
b11 1
b101 0
b10 /
b0 .
$end
#0
$dumpvars
b10000010100010001000100 ]
0\
1[
0Z
0Y
1X
1W
1V
0U
0T
0S
0R
1Q
1P
0O
1N
b10 M
1L
b1100 K
b101 J
1I
0H
0G
0F
0E
1D
0C
1B
0A
0@
1?
1>
1=
1<
1;
b1000 :
09
b11 8
b101 7
b1000 6
0-
b1000 ,
1+
b10 *
b0 )
b11 (
b101 '
b0 &
b11 %
b101 $
0#
b1000 "
0!
$end
#10000
1!
b0 "
b0 6
b0 ,
b0 :
1#
1Y
b1110 *
b1110 M
0I
1-
1V
1O
1\
1U
b1110 K
0B
1A
1G
1T
1Z
b1 %
b1 (
b1 8
b1111 $
b1111 '
b1111 7
b1111 J
#20000
0\
0N
0O
1C
0-
0=
b1011 ,
b1011 :
1I
b101 *
b101 M
1@
0<
0F
0;
1S
0P
0V
1Y
0U
0!
b1100 K
1B
0>
0A
0D
0Q
0T
0W
b101 "
b101 6
1#
b10100110101010101000010 ]
b1 &
b1 )
b11 %
b11 (
b11 8
b1000 $
b1000 '
b1000 7
b1000 J
#30000
1!
1O
b0 "
b0 6
1=
1;
b1010 ,
b1010 :
1N
b0 *
b0 M
1+
1C
0@
1I
0S
1P
0Y
0\
1U
0X
b1010 K
0B
1E
1>
1D
0G
1Q
1W
0Z
1#
b101 %
b101 (
b101 8
b101 $
b101 '
b101 7
b101 J
#40000
1V
0O
0I
0Y
0<
b110 ,
b110 :
0;
0=
b10 *
b10 M
1C
1F
1-
0S
1P
0\
1R
0U
1X
0[
0!
b101 K
0?
1B
0E
1H
0>
1G
0Q
1Z
b1000 "
b1000 6
0#
b10000010100111001000100 ]
b10 &
b10 )
b1010 %
b1010 (
b1010 8
b1100 $
b1100 '
b1100 7
b1100 J
#50000
b1110 "
b1110 6
b100111101010010 ]
b11 &
b11 )
#60000
b110 "
b110 6
b10110000100111101010010 ]
b100 &
b100 )
#70000
x;
xP
x+
xS
x\
x-
x<
bx ,
bx :
bx *
bx M
xN
x@
xI
xC
xF
xV
xO
xY
xR
xU
xX
x[
bx K
x?
xB
xE
xH
1A
0D
1T
0W
b101 "
b101 6
b10011100100111101010100 ]
b101 &
b101 )
bx %
bx (
bx 8
b1010 $
b1010 '
b1010 7
b1010 J
#80000
1D
0G
1W
0Z
b1100 "
b1100 6
b10100110100100001001100 ]
b110 &
b110 )
b110 $
b110 '
b110 7
b110 J
#90000
b11 "
b11 6
b10100110100100001010010 ]
b111 &
b111 )
#100000
0D
1G
0W
1Z
1#
b100 "
b100 6
b10100110100100001001100 ]
b110 &
b110 )
b1010 $
b1010 '
b1010 7
b1010 J
